<svg width="9" height="17" viewBox="0 0 9 17" fill="none" xmlns="http://www.w3.org/2000/svg">
<path d="M0.510254 1L4.26547 4.75522L8.02069 8.51044L0.510254 16.0209" stroke="white" stroke-linecap="round" stroke-linejoin="round"/>
</svg>
